[
  {
    "Alias": "#1",
    "QueueUrl": "https://sqs.eu-central-1.amazonaws.com/581175218341/message-updates-queue",
    "RedriveUrl": "http://nohost.com/",
    "Region": "eu-central-1",
    "Active": true,
    "Timeout": 10000
  }
]
