{
    "metrics": {
        "metrics_collected": {
            "cpu": {
                "resources": [
                    "*"
                ],
                "measurement": [
                    "usage_active"
                ],
                "totalcpu": true
            },
            "mem": {
                "measurement": [
                    "used_percent"
                ]
            }
        }
    },
    "logs": {
        "logs_collected": {
            "files": {
                "collect_list": [
                    {
                        "file_path": "/opt/aws/amazon-cloudwatch-agent/logs/amazon-cloudwatch-agent.log",
                        "log_group_name": "amazon-cloudwatch-agent.log"
                    },
                    {
                        "file_path": "/var/log/messages",
                        "log_group_name": "/var/log/messages"
                    }
                ]
            }
        }
    }
}