{
    "Version": "2012-10-17",
    "Id": "UseCase1",
    "Statement": [
      {
        "Sid": "1",
        "Effect": "Allow",
        "Principal": {
          "AWS": "arn:aws:iam::581175218341:root"
        },
        "Action": "SQS:*",
        "Resource": "${aws_sqs_queue.message_updates_queue.arn}"
      }
    ]
}